<?xml version="1.0" encoding="UTF-8"?>
<svg width="67px" height="65px" viewBox="0 0 67 65" version="1.1" xmlns="http://www.w3.org/2000/svg" xmlns:xlink="http://www.w3.org/1999/xlink">
    <!-- Generator: Sketch 54.1 (76490) - https://sketchapp.com -->
    <title>icon-templates</title>
    <desc>Created with Sketch.</desc>
    <g id="Landing-Pages" stroke="none" stroke-width="1" fill="none" fill-rule="evenodd">
        <g id="LP-Branded-Lead-Gen---Desktop-" transform="translate(-457.000000, -402.000000)" fill="#FF6F00" fill-rule="nonzero">
            <g id="Group" transform="translate(411.000000, 402.000000)">
                <g id="icon-templates" transform="translate(46.000000, 0.000000)">
                    <path d="M55.2638333,64.8602151 L26.8792833,64.8602151 C20.8772,64.8602151 15.9940167,59.9699785 15.9940167,53.9592258 L15.9940167,37.744172 C15.9940167,31.7334194 20.8772,26.8431828 26.8792833,26.8431828 L55.2638333,26.8431828 C61.2659167,26.8431828 66.1491,31.7334194 66.1491,37.744172 L66.1491,53.9592258 C66.1491,59.9699785 61.2659167,64.8602151 55.2638333,64.8602151 Z M26.8792833,32.7756559 C24.14345,32.7756559 21.9179333,35.0043871 21.9179333,37.744172 L21.9179333,53.9592258 C21.9179333,56.6990108 24.14345,58.9277419 26.8792833,58.9277419 L55.2638333,58.9277419 C57.9996667,58.9277419 60.2251833,56.6990108 60.2251833,53.9592258 L60.2251833,37.744172 C60.2251833,35.0043871 57.9996667,32.7756559 55.2638333,32.7756559 L26.8792833,32.7756559 Z M10.7881167,58.8203871 C11.4659333,61.0670108 12.6027,63.1156989 14.0856333,64.8602151 L11.8969667,64.8602151 C5.33655,64.8602151 1.65201186e-13,59.515957 1.65201186e-13,52.9460645 L1.65201186e-13,11.9141505 C1.65201186e-13,5.34425806 5.33655,3.19744231e-14 11.8969667,3.19744231e-14 L37.0733333,3.19744231e-14 C43.63375,3.19744231e-14 48.9703,5.34425806 48.9703,11.9141505 L48.9703,20.911828 L43.0463833,20.911828 L43.0463833,11.9141505 C43.0463833,8.61634409 40.3663833,5.93247312 37.0733333,5.93247312 L11.8969667,5.93247312 C8.60391667,5.93247312 5.92391667,8.61634409 5.92391667,11.9141505 L5.92391667,52.9460645 C5.92391667,55.8647742 8.02325,58.2981505 10.7881167,58.8203871 Z M52.7223,52.9706667 L46.0089,52.9706667 C43.17815,52.9706667 40.8744667,50.6647742 40.8744667,47.8288172 L40.8744667,43.8734624 C40.8744667,41.0386237 43.17815,38.7316129 46.0089,38.7316129 L52.7223,38.7316129 C55.55305,38.7316129 57.8567333,41.0375054 57.8567333,43.8734624 L57.8567333,47.8288172 C57.8556167,50.6647742 55.55305,52.9706667 52.7223,52.9706667 Z M46.0077833,41.5015914 C44.7012833,41.5015914 43.6382167,42.5661935 43.6382167,43.8745806 L43.6382167,47.8299355 C43.6382167,49.1383226 44.7012833,50.2029247 46.0077833,50.2029247 L52.7211833,50.2029247 C54.0276833,50.2029247 55.09075,49.1383226 55.09075,47.8299355 L55.09075,43.8745806 C55.09075,42.5661935 54.0276833,41.5015914 52.7211833,41.5015914 L46.0077833,41.5015914 Z M36.8589333,50.6882581 L25.6699333,50.6882581 C24.90725,50.6882581 24.2875,50.0687312 24.2875,49.303828 C24.2875,48.5389247 24.9061333,47.9193978 25.6699333,47.9193978 L36.8589333,47.9193978 C37.6216167,47.9193978 38.2413667,48.5389247 38.2413667,49.303828 C38.2413667,50.0687312 37.6227333,50.6882581 36.8589333,50.6882581 Z M36.8589333,44.623828 L25.6699333,44.623828 C24.90725,44.623828 24.2875,44.0043011 24.2875,43.2393978 C24.2875,42.4744946 24.9061333,41.8549677 25.6699333,41.8549677 L36.8589333,41.8549677 C37.6216167,41.8549677 38.2413667,42.4744946 38.2413667,43.2393978 C38.2413667,44.0043011 37.6227333,44.623828 36.8589333,44.623828 Z M19.97605,24.1246452 L13.26265,24.1246452 C10.4319,24.1246452 8.12821667,21.8187527 8.12821667,18.9827957 L8.12821667,15.0274409 C8.12821667,12.1926022 10.4319,9.8855914 13.26265,9.8855914 L19.97605,9.8855914 C22.8068,9.8855914 25.1104833,12.1914839 25.1104833,15.0274409 L25.1104833,18.9827957 C25.1104833,21.8187527 22.8068,24.1246452 19.97605,24.1246452 Z M13.26265,12.6555699 C11.95615,12.6555699 10.8930833,13.720172 10.8930833,15.0285591 L10.8930833,18.983914 C10.8930833,20.2923011 11.95615,21.3569032 13.26265,21.3569032 L19.97605,21.3569032 C21.28255,21.3569032 22.3456167,20.2923011 22.3456167,18.983914 L22.3456167,15.0285591 C22.3456167,13.720172 21.28255,12.6555699 19.97605,12.6555699 L13.26265,12.6555699 Z M39.4585333,20.6311398 L28.2695333,20.6311398 C27.50685,20.6311398 26.8871,20.0116129 26.8871,19.2467097 C26.8871,18.4818065 27.5057333,17.8622796 28.2695333,17.8622796 L39.4585333,17.8622796 C40.2212167,17.8622796 40.8409667,18.4818065 40.8409667,19.2467097 C40.8409667,20.0116129 40.2223333,20.6311398 39.4585333,20.6311398 Z M39.4585333,14.5667097 L28.2695333,14.5667097 C27.50685,14.5667097 26.8871,13.9471828 26.8871,13.1822796 C26.8871,12.4184946 27.5057333,11.7978495 28.2695333,11.7978495 L39.4585333,11.7978495 C40.2212167,11.7978495 40.8409667,12.4173763 40.8409667,13.1822796 C40.8409667,13.9471828 40.2223333,14.5667097 39.4585333,14.5667097 Z"></path>
                </g>
            </g>
        </g>
    </g>
</svg>